tidyverse – Statistisk teori och tillämpningar i R
…
Byta namn på variabler med rename()

Data som läses in till R kan ibland ha konstiga och långa namn som vid programmering kan bli svåra att hantera. Ett sätt att underlätta detta problem är att döpa om variablerna till ett enkelt ord som vi sedan kan använda i efterföljande steg.

Vi kan döpa om variabler med hjälp av rename() där vi anger det nya namnet givet det gamla namnet på variabeln eller variabelns kolumnindex.

# Döper om variabler till svenska namn utifrån det gamla namnet
penguins %>% 
  rename(
    art = species,
    näbblängd = bill_length_mm
  )

# A tibble: 333 × 8
   art    island    näbblängd bill_depth_mm flipper_length_mm body_mass_g sex   
   <fct>  <fct>         <dbl>         <dbl>             <int>       <int> <fct> 
 1 Adelie Torgersen      39.1          18.7               181        3750 male  
 2 Adelie Torgersen      39.5          17.4               186        3800 female
 3 Adelie Torgersen      40.3          18                 195        3250 female
 4 Adelie Torgersen      36.7          19.3               193        3450 female
 5 Adelie Torgersen      39.3          20.6               190        3650 male  
 6 Adelie Torgersen      38.9          17.8               181        3625 female
 7 Adelie Torgersen      39.2          19.6               195        4675 male  
 8 Adelie Torgersen      41.1          17.6               182        3200 female
 9 Adelie Torgersen      38.6          21.2               191        3800 male  
10 Adelie Torgersen      34.6          21.1               198        4400 male  
# ℹ 323 more rows
# ℹ 1 more variable: year <int>

# Döper om variabler till svenska namn utifrån dess kolumnindex
penguins %>% 
  rename(
    art = 1,
    näbblängd = 3
  )

# A tibble: 333 × 8
   art    island    näbblängd bill_depth_mm flipper_length_mm body_mass_g sex   
   <fct>  <fct>         <dbl>         <dbl>             <int>       <int> <fct> 
 1 Adelie Torgersen      39.1          18.7               181        3750 male  
 2 Adelie Torgersen      39.5          17.4               186        3800 female
 3 Adelie Torgersen      40.3          18                 195        3250 female
 4 Adelie Torgersen      36.7          19.3               193        3450 female
 5 Adelie Torgersen      39.3          20.6               190        3650 male  
 6 Adelie Torgersen      38.9          17.8               181        3625 female
 7 Adelie Torgersen      39.2          19.6               195        4675 male  
 8 Adelie Torgersen      41.1          17.6               182        3200 female
 9 Adelie Torgersen      38.6          21.2               191        3800 male  
10 Adelie Torgersen      34.6          21.1               198        4400 male  
# ℹ 323 more rows
# ℹ 1 more variable: year <int>

Plocka ut rader med filter()

Om vi är intresserade av att plocka ut vissa rader ur ett objekt, till exempel om vi vill rensa bort saknade värden, kan vi använda filter() med någon logisk operator som säger vilka rader vi vill ha kvar.

# Filtrerar bort observationer som saknar information ur variabeln "sex"
penguinsNonMissing <- 
  penguins %>% 
    filter(!is.na(sex))

print(penguinsNonMissing)

# A tibble: 333 × 8
   species island    bill_length_mm bill_depth_mm flipper_length_mm body_mass_g
   <fct>   <fct>              <dbl>         <dbl>             <int>       <int>
 1 Adelie  Torgersen           39.1          18.7               181        3750
 2 Adelie  Torgersen           39.5          17.4               186        3800
 3 Adelie  Torgersen           40.3          18                 195        3250
 4 Adelie  Torgersen           36.7          19.3               193        3450
 5 Adelie  Torgersen           39.3          20.6               190        3650
 6 Adelie  Torgersen           38.9          17.8               181        3625
 7 Adelie  Torgersen           39.2          19.6               195        4675
 8 Adelie  Torgersen           41.1          17.6               182        3200
 9 Adelie  Torgersen           38.6          21.2               191        3800
10 Adelie  Torgersen           34.6          21.1               198        4400
# ℹ 323 more rows
# ℹ 2 more variables: sex <fct>, year <int>

Vi kan också plocka ut rader som uppfyller ett visst kriterie, till exempel plocka ut alla Adelie pingviner.

penguins %>% 
  filter(species == "Adelie")

# A tibble: 146 × 8
   species island    bill_length_mm bill_depth_mm flipper_length_mm body_mass_g
   <fct>   <fct>              <dbl>         <dbl>             <int>       <int>
 1 Adelie  Torgersen           39.1          18.7               181        3750
 2 Adelie  Torgersen           39.5          17.4               186        3800
 3 Adelie  Torgersen           40.3          18                 195        3250
 4 Adelie  Torgersen           36.7          19.3               193        3450
 5 Adelie  Torgersen           39.3          20.6               190        3650
 6 Adelie  Torgersen           38.9          17.8               181        3625
 7 Adelie  Torgersen           39.2          19.6               195        4675
 8 Adelie  Torgersen           41.1          17.6               182        3200
 9 Adelie  Torgersen           38.6          21.2               191        3800
10 Adelie  Torgersen           34.6          21.1               198        4400
# ℹ 136 more rows
# ℹ 2 more variables: sex <fct>, year <int>

Plocka ut kolumner med select()

Anta att vi bara är intresserade av vissa kolumner från ett stort datamaterial, till exempel art och fenlängd av pingvinerna kan vi plocka ut de med hjälp av select(). Vi kan antingen använda variablernas faktiska namn eller variablernas kolumnindex för att specificera vilka variabler som ska plockas ut.

# Select med variabelnamn
penguins %>% 
  select(species, flipper_length_mm)

# A tibble: 333 × 2
   species flipper_length_mm
   <fct>               <int>
 1 Adelie                181
 2 Adelie                186
 3 Adelie                195
 4 Adelie                193
 5 Adelie                190
 6 Adelie                181
 7 Adelie                195
 8 Adelie                182
 9 Adelie                191
10 Adelie                198
# ℹ 323 more rows

# Select med kolumnindex
penguins %>% 
  select(1, 5)

# A tibble: 333 × 2
   species flipper_length_mm
   <fct>               <int>
 1 Adelie                181
 2 Adelie                186
 3 Adelie                195
 4 Adelie                193
 5 Adelie                190
 6 Adelie                181
 7 Adelie                195
 8 Adelie                182
 9 Adelie                191
10 Adelie                198
# ℹ 323 more rows

Det rekommenderas att använda variabelnamnen för att koden ska vara tydlig att läsa av och vi vet vilka variabler som faktiskt plockas ut och ev. skickas vidare till efterföljande funktioner.

Om vi har flera variabler som följer efter varandra behöver vi inte skriva upp varje enskilda variabelnamn som argument utan kan använda Var1:Var5 för att säga åt funktionen att plocka ut alla variabler från och med Var1 till och med Var5.

penguins %>% 
  select(species, bill_length_mm:body_mass_g)

# A tibble: 333 × 5
   species bill_length_mm bill_depth_mm flipper_length_mm body_mass_g
   <fct>            <dbl>         <dbl>             <int>       <int>
 1 Adelie            39.1          18.7               181        3750
 2 Adelie            39.5          17.4               186        3800
 3 Adelie            40.3          18                 195        3250
 4 Adelie            36.7          19.3               193        3450
 5 Adelie            39.3          20.6               190        3650
 6 Adelie            38.9          17.8               181        3625
 7 Adelie            39.2          19.6               195        4675
 8 Adelie            41.1          17.6               182        3200
 9 Adelie            38.6          21.2               191        3800
10 Adelie            34.6          21.1               198        4400
# ℹ 323 more rows

Byta plats på variabler med relocate()

Ibland kan vi vilja byta ordning på variablerna i datamaterialet utan att välja dem. Med select() får vi en möjlighet att välja vilken ordning som variablerna plockas ut, den ordning som vi anger dem i funktionen, men om vi bara vill flytta på variabler utan att plocka ut vissa kan relocate() användas istället.

Funktionen använder sig av tre argument, vilka variabler som ska flyttas och var de ska placeras. Som standard placeras de i början av datamaterialet.

# Placerar fenlängd som första kolumnen
penguins %>% 
  relocate(flipper_length_mm)

# A tibble: 333 × 8
   flipper_length_mm species island    bill_length_mm bill_depth_mm body_mass_g
               <int> <fct>   <fct>              <dbl>         <dbl>       <int>
 1               181 Adelie  Torgersen           39.1          18.7        3750
 2               186 Adelie  Torgersen           39.5          17.4        3800
 3               195 Adelie  Torgersen           40.3          18          3250
 4               193 Adelie  Torgersen           36.7          19.3        3450
 5               190 Adelie  Torgersen           39.3          20.6        3650
 6               181 Adelie  Torgersen           38.9          17.8        3625
 7               195 Adelie  Torgersen           39.2          19.6        4675
 8               182 Adelie  Torgersen           41.1          17.6        3200
 9               191 Adelie  Torgersen           38.6          21.2        3800
10               198 Adelie  Torgersen           34.6          21.1        4400
# ℹ 323 more rows
# ℹ 2 more variables: sex <fct>, year <int>

# Placerar art efter näbbreddens variabel
penguins %>% 
  relocate(species, .after = bill_depth_mm)

# A tibble: 333 × 8
   island    bill_length_mm bill_depth_mm species flipper_length_mm body_mass_g
   <fct>              <dbl>         <dbl> <fct>               <int>       <int>
 1 Torgersen           39.1          18.7 Adelie                181        3750
 2 Torgersen           39.5          17.4 Adelie                186        3800
 3 Torgersen           40.3          18   Adelie                195        3250
 4 Torgersen           36.7          19.3 Adelie                193        3450
 5 Torgersen           39.3          20.6 Adelie                190        3650
 6 Torgersen           38.9          17.8 Adelie                181        3625
 7 Torgersen           39.2          19.6 Adelie                195        4675
 8 Torgersen           41.1          17.6 Adelie                182        3200
 9 Torgersen           38.6          21.2 Adelie                191        3800
10 Torgersen           34.6          21.1 Adelie                198        4400
# ℹ 323 more rows
# ℹ 2 more variables: sex <fct>, year <int>
…
